Order ID;Product;Category;Amount;Date;Country
533;Banana;Fruit;$3,917;6/4/2012;United States
534;Apple;Fruit;$521;6/4/2012;Canada
535;Apple;Fruit;$5,605;6/10/2012;France
536;Broccoli;Vegetables;$9,630;6/11/2012;Germany
537;Banana;Fruit;$6,941;6/20/2012;Canada
538;Broccoli;Vegetables;$7,231;6/20/2012;United Kingdom
539;Broccoli;Vegetables;$8,891;6/23/2012;Australia
540;Banana;Fruit;$107;6/25/2012;France
541;Banana;Fruit;$4,243;6/26/2012;United States
542;Orange;Fruit;$4,514;6/27/2012;United States
543;Mango;Fruit;$5,480;7/2/2012;United States
544;Banana;Fruit;$5,002;7/2/2012;France
545;Banana;Fruit;$8,530;7/5/2012;Canada
546;Orange;Fruit;$4,819;7/7/2012;New Zealand
547;Broccoli;Vegetables;$6,343;7/11/2012;United Kingdom
548;Orange;Fruit;$2,318;7/13/2012;United Kingdom
549;Orange;Fruit;$220;7/20/2012;United Kingdom
550;Orange;Fruit;$6,341;7/20/2012;New Zealand
551;Apple;Fruit;$330;7/20/2012;Germany
552;Broccoli;Vegetables;$3,027;7/20/2012;United Kingdom
553;Orange;Fruit;$850;7/22/2012;New Zealand
554;Banana;Fruit;$8,986;7/23/2012;United Kingdom
555;Broccoli;Vegetables;$3,800;7/25/2012;United States
556;Carrots;Vegetables;$5,751;7/28/2012;United Kingdom
557;Apple;Fruit;$1,704;7/29/2012;United Kingdom
558;Banana;Fruit;$7,966;7/30/2012;Australia
559;Banana;Fruit;$852;7/31/2012;United States
560;Beans;Vegetables;$8,416;7/31/2012;Australia
561;Banana;Fruit;$7,144;8/1/2012;France
562;Broccoli;Vegetables;$7,854;8/1/2012;United States
563;Orange;Fruit;$859;8/3/2012;United States
564;Broccoli;Vegetables;$8,049;8/12/2012;United States
565;Banana;Fruit;$2,836;8/13/2012;Germany
566;Carrots;Vegetables;$1,743;8/19/2012;United States
567;Apple;Fruit;$3,844;8/23/2012;France
568;Apple;Fruit;$7,490;8/24/2012;France
569;Broccoli;Vegetables;$4,483;8/25/2012;Germany
570;Apple;Fruit;$7,333;8/27/2012;Canada
571;Carrots;Vegetables;$7,654;8/28/2012;United States
572;Apple;Fruit;$3,944;8/29/2012;United Kingdom
573;Beans;Vegetables;$5,761;8/29/2012;Germany
574;Banana;Fruit;$6,864;9/1/2012;New Zealand
575;Banana;Fruit;$4,016;9/1/2012;Germany
576;Banana;Fruit;$1,841;9/2/2012;United States
577;Banana;Fruit;$424;9/5/2012;Australia
578;Banana;Fruit;$8,765;9/7/2012;United Kingdom
579;Banana;Fruit;$5,583;9/8/2012;United States
580;Broccoli;Vegetables;$4,390;9/9/2012;New Zealand
581;Broccoli;Vegetables;$352;9/9/2012;Canada
582;Apple;Fruit;$8,489;9/11/2012;United States
583;Banana;Fruit;$7,090;9/11/2012;France
584;Banana;Fruit;$7,880;9/15/2012;United States
585;Orange;Fruit;$3,861;9/18/2012;United States
586;Broccoli;Vegetables;$7,927;9/19/2012;Germany
587;Banana;Fruit;$6,162;9/20/2012;United States
588;Mango;Fruit;$5,523;9/25/2012;Australia
589;Broccoli;Vegetables;$5,936;9/25/2012;United Kingdom
590;Carrots;Vegetables;$7,251;9/26/2012;Germany
591;Orange;Fruit;$6,187;9/27/2012;Australia
592;Banana;Fruit;$3,210;9/29/2012;Germany
593;Carrots;Vegetables;$682;9/29/2012;Germany
594;Banana;Fruit;$793;10/3/2012;Australia
595;Carrots;Vegetables;$5,346;10/4/2012;Germany
596;Banana;Fruit;$7,103;10/7/2012;New Zealand
597;Carrots;Vegetables;$4,603;10/10/2012;United States
598;Apple;Fruit;$8,160;10/16/2012;France
599;Apple;Fruit;$7,171;10/23/2012;United Kingdom
600;Banana;Fruit;$3,552;10/23/2012;New Zealand
601;Banana;Fruit;$7,273;10/25/2012;Australia
602;Banana;Fruit;$2,402;10/26/2012;Germany
603;Banana;Fruit;$1,197;10/26/2012;Australia
604;Beans;Vegetables;$5,015;10/26/2012;Australia
605;Orange;Fruit;$5,818;11/2/2012;United States
606;Banana;Fruit;$4,399;11/3/2012;United Kingdom
607;Carrots;Vegetables;$3,011;11/3/2012;United States
608;Apple;Fruit;$4,715;11/9/2012;United Kingdom
609;Apple;Fruit;$5,321;11/12/2012;France
610;Banana;Fruit;$8,894;11/15/2012;United States
611;Carrots;Vegetables;$4,846;11/25/2012;United Kingdom
612;Broccoli;Vegetables;$284;11/25/2012;Germany
613;Orange;Fruit;$8,283;11/26/2012;United Kingdom
614;Orange;Fruit;$9,990;11/28/2012;Canada
615;Banana;Fruit;$9,014;11/28/2012;Australia
616;Apple;Fruit;$1,942;11/29/2012;France
617;Banana;Fruit;$7,223;11/30/2012;United States
618;Carrots;Vegetables;$4,673;12/2/2012;United States
619;Carrots;Vegetables;$9,104;12/4/2012;France
620;Apple;Fruit;$6,078;12/5/2012;United States
621;Beans;Vegetables;$3,278;12/6/2012;Germany
622;Banana;Fruit;$136;12/12/2012;Canada
623;Banana;Fruit;$8,377;12/12/2012;Australia
624;Banana;Fruit;$2,382;12/12/2012;United States
625;Banana;Fruit;$8,702;12/15/2012;Germany
626;Banana;Fruit;$5,021;12/16/2012;United States
627;Apple;Fruit;$1,760;12/16/2012;Australia
628;Banana;Fruit;$4,766;12/18/2012;Germany
629;Beans;Vegetables;$1,541;12/19/2012;United Kingdom
630;Orange;Fruit;$2,782;12/20/2012;United Kingdom
631;Apple;Fruit;$2,455;12/20/2012;Canada
632;Apple;Fruit;$4,512;12/22/2012;New Zealand
633;Apple;Fruit;$8,752;12/22/2012;Germany
634;Carrots;Vegetables;$9,127;12/25/2012;United States
635;Apple;Fruit;$1,777;12/28/2012;France
636;Beans;Vegetables;$680;12/28/2012;France
637;Orange;Fruit;$958;12/29/2012;United States
638;Carrots;Vegetables;$2,613;12/29/2012;Australia
639;Carrots;Vegetables;$339;12/30/2012;Australia
640;Carrots;Vegetables;$4,270;1/6/2012;United States
641;Broccoli;Vegetables;$8,239;1/7/2012;United Kingdom
642;Banana;Fruit;$617;1/8/2012;United States
643;Banana;Fruit;$8,384;1/10/2012;Canada
644;Beans;Vegetables;$2,626;1/10/2012;Germany
645;Orange;Fruit;$3,610;1/11/2012;United States
646;Broccoli;Vegetables;$9,062;1/11/2012;Australia
647;Banana;Fruit;$6,906;1/16/2012;New Zealand
648;Apple;Fruit;$2,417;1/16/2012;France
649;Apple;Fruit;$7,431;1/16/2012;Canada
650;Banana;Fruit;$8,250;1/16/2012;Germany
651;Broccoli;Vegetables;$7,012;1/18/2012;United States
652;Carrots;Vegetables;$1,903;1/20/2012;Germany
653;Broccoli;Vegetables;$2,824;1/22/2012;Canada
654;Apple;Fruit;$6,946;1/24/2012;France
655;Banana;Fruit;$2,320;1/27/2012;United Kingdom
656;Banana;Fruit;$2,116;1/28/2012;United States
657;Banana;Fruit;$1,135;1/30/2012;United Kingdom
658;Broccoli;Vegetables;$3,595;1/30/2012;United Kingdom
659;Apple;Fruit;$1,161;2/2/2012;United States
660;Orange;Fruit;$2,256;2/4/2012;France
661;Banana;Fruit;$1,004;2/11/2012;New Zealand
662;Banana;Fruit;$3,642;2/14/2012;Canada
663;Banana;Fruit;$4,582;2/17/2012;United States
664;Beans;Vegetables;$3,559;2/17/2012;United Kingdom
665;Carrots;Vegetables;$5,154;2/17/2012;Australia
666;Mango;Fruit;$7,388;2/18/2012;France
667;Beans;Vegetables;$7,163;2/18/2012;United States
668;Beans;Vegetables;$5,101;2/20/2012;Germany
669;Apple;Fruit;$7,602;2/21/2012;France
670;Mango;Fruit;$1,641;2/22/2012;United States
671;Apple;Fruit;$8,892;2/23/2012;Australia
672;Apple;Fruit;$2,060;2/29/2012;France
673;Broccoli;Vegetables;$1,557;2/29/2012;Germany
674;Apple;Fruit;$6,509;3/1/2012;France
675;Apple;Fruit;$5,718;3/4/2012;Australia
676;Apple;Fruit;$7,655;3/5/2012;United States
677;Carrots;Vegetables;$9,116;3/5/2012;United Kingdom
678;Banana;Fruit;$2,795;3/15/2012;United States
679;Banana;Fruit;$5,084;3/15/2012;United States
680;Carrots;Vegetables;$8,941;3/15/2012;United Kingdom
681;Broccoli;Vegetables;$5,341;3/16/2012;France
682;Banana;Fruit;$135;3/19/2012;Canada
683;Banana;Fruit;$9,400;3/19/2012;Australia
684;Beans;Vegetables;$6,045;3/21/2012;Germany
685;Apple;Fruit;$5,820;3/22/2012;New Zealand
686;Orange;Fruit;$8,887;3/23/2012;Germany
687;Orange;Fruit;$6,982;3/24/2012;United States
688;Banana;Fruit;$4,029;3/26/2012;Australia
689;Carrots;Vegetables;$3,665;3/26/2012;Germany
690;Banana;Fruit;$4,781;3/29/2012;France
691;Mango;Fruit;$3,663;3/30/2012;Australia
692;Apple;Fruit;$6,331;4/1/2012;France
693;Apple;Fruit;$4,364;4/1/2012;Canada
694;Carrots;Vegetables;$607;4/3/2012;United Kingdom
695;Banana;Fruit;$1,054;4/6/2012;New Zealand
696;Carrots;Vegetables;$7,659;4/6/2012;United States
697;Broccoli;Vegetables;$277;4/12/2012;Germany
698;Banana;Fruit;$235;4/17/2012;United States
699;Orange;Fruit;$1,113;4/18/2012;Australia
700;Apple;Fruit;$1,128;4/21/2012;United States
701;Broccoli;Vegetables;$9,231;4/22/2012;Canada
702;Banana;Fruit;$4,387;4/23/2012;United States
703;Apple;Fruit;$2,763;4/25/2012;Canada
704;Banana;Fruit;$7,898;4/27/2012;United Kingdom
705;Banana;Fruit;$2,427;4/30/2012;France
706;Banana;Fruit;$8,663;5/1/2012;New Zealand
707;Carrots;Vegetables;$2,789;5/1/2012;Germany
708;Banana;Fruit;$4,054;5/2/2012;United States
709;Mango;Fruit;$2,262;5/2/2012;United States
710;Mango;Fruit;$5,600;5/2/2012;United Kingdom
711;Banana;Fruit;$5,787;5/3/2012;United States
712;Orange;Fruit;$6,295;5/3/2012;Canada
713;Banana;Fruit;$474;5/5/2012;Germany
714;Apple;Fruit;$4,325;5/5/2012;France
715;Banana;Fruit;$592;5/6/2012;United States
716;Orange;Fruit;$4,330;5/8/2012;United States
717;Banana;Fruit;$9,405;5/8/2012;United Kingdom
718;Apple;Fruit;$7,671;5/8/2012;France
719;Carrots;Vegetables;$5,791;5/8/2012;United Kingdom
720;Banana;Fruit;$6,007;5/12/2012;Canada
721;Banana;Fruit;$5,030;5/14/2012;Germany
722;Carrots;Vegetables;$6,763;5/14/2012;United Kingdom
723;Banana;Fruit;$4,248;5/15/2012;Australia
724;Banana;Fruit;$9,543;5/16/2012;France
725;Broccoli;Vegetables;$2,054;5/16/2012;United Kingdom
726;Beans;Vegetables;$7,094;5/16/2012;Germany
727;Carrots;Vegetables;$6,087;5/18/2012;United States
728;Apple;Fruit;$4,264;5/19/2012;Australia
729;Mango;Fruit;$9,333;5/20/2012;United States
730;Mango;Fruit;$8,775;5/22/2012;Germany
731;Broccoli;Vegetables;$2,011;5/23/2012;United Kingdom
732;Banana;Fruit;$5,632;5/25/2012;United States
733;Banana;Fruit;$4,904;5/25/2012;New Zealand
734;Beans;Vegetables;$1,002;5/25/2012;Australia
735;Orange;Fruit;$8,141;5/26/2012;United Kingdom
736;Orange;Fruit;$3,644;5/26/2012;Canada
737;Orange;Fruit;$1,380;5/26/2012;Australia
738;Broccoli;Vegetables;$8,354;5/26/2012;Germany
739;Banana;Fruit;$5,182;5/27/2012;United States
740;Apple;Fruit;$2,193;5/27/2012;France
741;Mango;Fruit;$3,647;5/28/2012;United States
742;Apple;Fruit;$4,104;5/28/2012;United States
743;Carrots;Vegetables;$7,457;5/28/2012;United States
744;Mango;Fruit;$3,767;5/29/2012;Canada
745;Broccoli;Vegetables;$4,685;5/30/2012;Germany
746;Banana;Fruit;$3,917;6/4/2012;United States
747;Apple;Fruit;$521;6/4/2012;Canada
748;Apple;Fruit;$5,605;6/10/2012;France
749;Broccoli;Vegetables;$9,630;6/11/2012;Germany
750;Banana;Fruit;$6,941;6/20/2012;Canada
751;Broccoli;Vegetables;$7,231;6/20/2012;United Kingdom
752;Broccoli;Vegetables;$8,891;6/23/2012;Australia
753;Banana;Fruit;$107;6/25/2012;France
754;Banana;Fruit;$4,243;6/26/2012;United States
755;Orange;Fruit;$4,514;6/27/2012;United States
756;Mango;Fruit;$5,480;7/2/2012;United States
757;Banana;Fruit;$5,002;7/2/2012;France
758;Banana;Fruit;$8,530;7/5/2012;Canada
759;Orange;Fruit;$4,819;7/7/2012;New Zealand
760;Broccoli;Vegetables;$6,343;7/11/2012;United Kingdom
761;Orange;Fruit;$2,318;7/13/2012;United Kingdom
762;Orange;Fruit;$220;7/20/2012;United Kingdom
763;Orange;Fruit;$6,341;7/20/2012;New Zealand
764;Apple;Fruit;$330;7/20/2012;Germany
765;Broccoli;Vegetables;$3,027;7/20/2012;United Kingdom
766;Orange;Fruit;$850;7/22/2012;New Zealand
767;Banana;Fruit;$8,986;7/23/2012;United Kingdom
768;Broccoli;Vegetables;$3,800;7/25/2012;United States
769;Carrots;Vegetables;$5,751;7/28/2012;United Kingdom
770;Apple;Fruit;$1,704;7/29/2012;United Kingdom
771;Banana;Fruit;$7,966;7/30/2012;Australia
772;Banana;Fruit;$852;7/31/2012;United States
773;Beans;Vegetables;$8,416;7/31/2012;Australia
774;Banana;Fruit;$7,144;8/1/2012;France
775;Broccoli;Vegetables;$7,854;8/1/2012;United States
776;Orange;Fruit;$859;8/3/2012;United States
777;Broccoli;Vegetables;$8,049;8/12/2012;United States
778;Banana;Fruit;$2,836;8/13/2012;Germany
779;Carrots;Vegetables;$1,743;8/19/2012;United States
780;Apple;Fruit;$3,844;8/23/2012;France
781;Apple;Fruit;$7,490;8/24/2012;France
782;Broccoli;Vegetables;$4,483;8/25/2012;Germany
783;Apple;Fruit;$7,333;8/27/2012;Canada
784;Carrots;Vegetables;$7,654;8/28/2012;United States
785;Apple;Fruit;$3,944;8/29/2012;United Kingdom
786;Beans;Vegetables;$5,761;8/29/2012;Germany
787;Banana;Fruit;$6,864;9/1/2012;New Zealand
788;Banana;Fruit;$4,016;9/1/2012;Germany
789;Banana;Fruit;$1,841;9/2/2012;United States
790;Banana;Fruit;$424;9/5/2012;Australia
791;Banana;Fruit;$8,765;9/7/2012;United Kingdom
792;Banana;Fruit;$5,583;9/8/2012;United States
793;Broccoli;Vegetables;$4,390;9/9/2012;New Zealand
794;Broccoli;Vegetables;$352;9/9/2012;Canada
795;Apple;Fruit;$8,489;9/11/2012;United States
796;Banana;Fruit;$7,090;9/11/2012;France
797;Banana;Fruit;$7,880;9/15/2012;United States
798;Orange;Fruit;$3,861;9/18/2012;United States
799;Broccoli;Vegetables;$7,927;9/19/2012;Germany
800;Banana;Fruit;$6,162;9/20/2012;United States
801;Mango;Fruit;$5,523;9/25/2012;Australia
802;Broccoli;Vegetables;$5,936;9/25/2012;United Kingdom
803;Carrots;Vegetables;$7,251;9/26/2012;Germany
804;Orange;Fruit;$6,187;9/27/2012;Australia
805;Banana;Fruit;$3,210;9/29/2012;Germany
806;Carrots;Vegetables;$682;9/29/2012;Germany
807;Banana;Fruit;$793;10/3/2012;Australia
808;Carrots;Vegetables;$5,346;10/4/2012;Germany
809;Banana;Fruit;$7,103;10/7/2012;New Zealand
810;Carrots;Vegetables;$4,603;10/10/2012;United States
811;Apple;Fruit;$8,160;10/16/2012;France
812;Apple;Fruit;$7,171;10/23/2012;United Kingdom
813;Banana;Fruit;$3,552;10/23/2012;New Zealand
814;Banana;Fruit;$7,273;10/25/2012;Australia
815;Banana;Fruit;$2,402;10/26/2012;Germany
816;Banana;Fruit;$1,197;10/26/2012;Australia
817;Beans;Vegetables;$5,015;10/26/2012;Australia
818;Orange;Fruit;$5,818;11/2/2012;United States
819;Banana;Fruit;$4,399;11/3/2012;United Kingdom
820;Carrots;Vegetables;$3,011;11/3/2012;United States
821;Apple;Fruit;$4,715;11/9/2012;United Kingdom
822;Apple;Fruit;$5,321;11/12/2012;France
823;Banana;Fruit;$8,894;11/15/2012;United States
824;Carrots;Vegetables;$4,846;11/25/2012;United Kingdom
825;Broccoli;Vegetables;$284;11/25/2012;Germany
826;Orange;Fruit;$8,283;11/26/2012;United Kingdom
827;Orange;Fruit;$9,990;11/28/2012;Canada
828;Banana;Fruit;$9,014;11/28/2012;Australia
829;Apple;Fruit;$1,942;11/29/2012;France
830;Banana;Fruit;$7,223;11/30/2012;United States
831;Carrots;Vegetables;$4,673;12/2/2012;United States
832;Carrots;Vegetables;$9,104;12/4/2012;France
833;Apple;Fruit;$6,078;12/5/2012;United States
834;Beans;Vegetables;$3,278;12/6/2012;Germany
835;Banana;Fruit;$136;12/12/2012;Canada
836;Banana;Fruit;$8,377;12/12/2012;Australia
837;Banana;Fruit;$2,382;12/12/2012;United States
838;Banana;Fruit;$8,702;12/15/2012;Germany
839;Banana;Fruit;$5,021;12/16/2012;United States
840;Apple;Fruit;$1,760;12/16/2012;Australia
841;Banana;Fruit;$4,766;12/18/2012;Germany
842;Beans;Vegetables;$1,541;12/19/2012;United Kingdom
843;Orange;Fruit;$2,782;12/20/2012;United Kingdom
844;Apple;Fruit;$2,455;12/20/2012;Canada
845;Apple;Fruit;$4,512;12/22/2012;New Zealand
846;Apple;Fruit;$8,752;12/22/2012;Germany
847;Carrots;Vegetables;$9,127;12/25/2012;United States
848;Apple;Fruit;$1,777;12/28/2012;France
849;Beans;Vegetables;$680;12/28/2012;France
850;Orange;Fruit;$958;12/29/2012;United States
851;Carrots;Vegetables;$2,613;12/29/2012;Australia
852;Carrots;Vegetables;$339;12/30/2012;Australia
853;Carrots;Vegetables;$4,270;1/6/2012;United States
854;Broccoli;Vegetables;$8,239;1/7/2012;United Kingdom
855;Banana;Fruit;$617;1/8/2012;United States
856;Banana;Fruit;$8,384;1/10/2012;Canada
857;Beans;Vegetables;$2,626;1/10/2012;Germany
858;Orange;Fruit;$3,610;1/11/2012;United States
859;Broccoli;Vegetables;$9,062;1/11/2012;Australia
860;Banana;Fruit;$6,906;1/16/2012;New Zealand
861;Apple;Fruit;$2,417;1/16/2012;France
862;Apple;Fruit;$7,431;1/16/2012;Canada
863;Banana;Fruit;$8,250;1/16/2012;Germany
864;Broccoli;Vegetables;$7,012;1/18/2012;United States
865;Carrots;Vegetables;$1,903;1/20/2012;Germany
866;Broccoli;Vegetables;$2,824;1/22/2012;Canada
867;Apple;Fruit;$6,946;1/24/2012;France
868;Banana;Fruit;$2,320;1/27/2012;United Kingdom
869;Banana;Fruit;$2,116;1/28/2012;United States
870;Banana;Fruit;$1,135;1/30/2012;United Kingdom
871;Broccoli;Vegetables;$3,595;1/30/2012;United Kingdom
872;Apple;Fruit;$1,161;2/2/2012;United States
873;Orange;Fruit;$2,256;2/4/2012;France
874;Banana;Fruit;$1,004;2/11/2012;New Zealand
875;Banana;Fruit;$3,642;2/14/2012;Canada
876;Banana;Fruit;$4,582;2/17/2012;United States
877;Beans;Vegetables;$3,559;2/17/2012;United Kingdom
878;Carrots;Vegetables;$5,154;2/17/2012;Australia
879;Mango;Fruit;$7,388;2/18/2012;France
880;Beans;Vegetables;$7,163;2/18/2012;United States
881;Beans;Vegetables;$5,101;2/20/2012;Germany
882;Apple;Fruit;$7,602;2/21/2012;France
883;Mango;Fruit;$1,641;2/22/2012;United States
884;Apple;Fruit;$8,892;2/23/2012;Australia
885;Apple;Fruit;$2,060;2/29/2012;France
886;Broccoli;Vegetables;$1,557;2/29/2012;Germany
887;Apple;Fruit;$6,509;3/1/2012;France
888;Apple;Fruit;$5,718;3/4/2012;Australia
889;Apple;Fruit;$7,655;3/5/2012;United States
890;Carrots;Vegetables;$9,116;3/5/2012;United Kingdom
891;Banana;Fruit;$2,795;3/15/2012;United States
892;Banana;Fruit;$5,084;3/15/2012;United States
893;Carrots;Vegetables;$8,941;3/15/2012;United Kingdom
894;Broccoli;Vegetables;$5,341;3/16/2012;France
895;Banana;Fruit;$135;3/19/2012;Canada
896;Banana;Fruit;$9,400;3/19/2012;Australia
897;Beans;Vegetables;$6,045;3/21/2012;Germany
898;Apple;Fruit;$5,820;3/22/2012;New Zealand
899;Orange;Fruit;$8,887;3/23/2012;Germany
900;Orange;Fruit;$6,982;3/24/2012;United States
901;Banana;Fruit;$4,029;3/26/2012;Australia
902;Carrots;Vegetables;$3,665;3/26/2012;Germany
903;Banana;Fruit;$4,781;3/29/2012;France
904;Mango;Fruit;$3,663;3/30/2012;Australia
905;Apple;Fruit;$6,331;4/1/2012;France
906;Apple;Fruit;$4,364;4/1/2012;Canada
907;Carrots;Vegetables;$607;4/3/2012;United Kingdom
908;Banana;Fruit;$1,054;4/6/2012;New Zealand
909;Carrots;Vegetables;$7,659;4/6/2012;United States
910;Broccoli;Vegetables;$277;4/12/2012;Germany
911;Banana;Fruit;$235;4/17/2012;United States
912;Orange;Fruit;$1,113;4/18/2012;Australia
913;Apple;Fruit;$1,128;4/21/2012;United States
914;Broccoli;Vegetables;$9,231;4/22/2012;Canada
915;Banana;Fruit;$4,387;4/23/2012;United States
916;Apple;Fruit;$2,763;4/25/2012;Canada
917;Banana;Fruit;$7,898;4/27/2012;United Kingdom
918;Banana;Fruit;$2,427;4/30/2012;France
919;Banana;Fruit;$8,663;5/1/2012;New Zealand
920;Carrots;Vegetables;$2,789;5/1/2012;Germany
921;Banana;Fruit;$4,054;5/2/2012;United States
922;Mango;Fruit;$2,262;5/2/2012;United States
923;Mango;Fruit;$5,600;5/2/2012;United Kingdom
924;Banana;Fruit;$5,787;5/3/2012;United States
925;Orange;Fruit;$6,295;5/3/2012;Canada
926;Banana;Fruit;$474;5/5/2012;Germany
927;Apple;Fruit;$4,325;5/5/2012;France
928;Banana;Fruit;$592;5/6/2012;United States
929;Orange;Fruit;$4,330;5/8/2012;United States
930;Banana;Fruit;$9,405;5/8/2012;United Kingdom
931;Apple;Fruit;$7,671;5/8/2012;France
932;Carrots;Vegetables;$5,791;5/8/2012;United Kingdom
933;Banana;Fruit;$6,007;5/12/2012;Canada
934;Banana;Fruit;$5,030;5/14/2012;Germany
935;Carrots;Vegetables;$6,763;5/14/2012;United Kingdom
936;Banana;Fruit;$4,248;5/15/2012;Australia
937;Banana;Fruit;$9,543;5/16/2012;France
938;Broccoli;Vegetables;$2,054;5/16/2012;United Kingdom
939;Beans;Vegetables;$7,094;5/16/2012;Germany
940;Carrots;Vegetables;$6,087;5/18/2012;United States
941;Apple;Fruit;$4,264;5/19/2012;Australia
942;Mango;Fruit;$9,333;5/20/2012;United States
943;Mango;Fruit;$8,775;5/22/2012;Germany
944;Broccoli;Vegetables;$2,011;5/23/2012;United Kingdom
945;Banana;Fruit;$5,632;5/25/2012;United States
946;Banana;Fruit;$4,904;5/25/2012;New Zealand
947;Beans;Vegetables;$1,002;5/25/2012;Australia
948;Orange;Fruit;$8,141;5/26/2012;United Kingdom
949;Orange;Fruit;$3,644;5/26/2012;Canada
950;Orange;Fruit;$1,380;5/26/2012;Australia
951;Broccoli;Vegetables;$8,354;5/26/2012;Germany
952;Banana;Fruit;$5,182;5/27/2012;United States
953;Apple;Fruit;$2,193;5/27/2012;France
954;Mango;Fruit;$3,647;5/28/2012;United States
955;Apple;Fruit;$4,104;5/28/2012;United States
956;Carrots;Vegetables;$7,457;5/28/2012;United States
957;Mango;Fruit;$3,767;5/29/2012;Canada
958;Broccoli;Vegetables;$4,685;5/30/2012;Germany
959;Banana;Fruit;$3,917;6/4/2012;United States
960;Apple;Fruit;$521;6/4/2012;Canada
961;Apple;Fruit;$5,605;6/10/2012;France
962;Broccoli;Vegetables;$9,630;6/11/2012;Germany
963;Banana;Fruit;$6,941;6/20/2012;Canada
964;Broccoli;Vegetables;$7,231;6/20/2012;United Kingdom
965;Broccoli;Vegetables;$8,891;6/23/2012;Australia
966;Banana;Fruit;$107;6/25/2012;France
967;Banana;Fruit;$4,243;6/26/2012;United States
968;Orange;Fruit;$4,514;6/27/2012;United States
969;Mango;Fruit;$5,480;7/2/2012;United States
970;Banana;Fruit;$5,002;7/2/2012;France
971;Banana;Fruit;$8,530;7/5/2012;Canada
972;Orange;Fruit;$4,819;7/7/2012;New Zealand
973;Broccoli;Vegetables;$6,343;7/11/2012;United Kingdom
974;Orange;Fruit;$2,318;7/13/2012;United Kingdom
975;Orange;Fruit;$220;7/20/2012;United Kingdom
976;Orange;Fruit;$6,341;7/20/2012;New Zealand
977;Apple;Fruit;$330;7/20/2012;Germany
978;Broccoli;Vegetables;$3,027;7/20/2012;United Kingdom
979;Orange;Fruit;$850;7/22/2012;New Zealand
980;Banana;Fruit;$8,986;7/23/2012;United Kingdom
981;Broccoli;Vegetables;$3,800;7/25/2012;United States
982;Carrots;Vegetables;$5,751;7/28/2012;United Kingdom
983;Apple;Fruit;$1,704;7/29/2012;United Kingdom
984;Banana;Fruit;$7,966;7/30/2012;Australia
985;Banana;Fruit;$852;7/31/2012;United States
986;Beans;Vegetables;$8,416;7/31/2012;Australia
987;Banana;Fruit;$7,144;8/1/2012;France
988;Broccoli;Vegetables;$7,854;8/1/2012;United States
989;Orange;Fruit;$859;8/3/2012;United States
990;Broccoli;Vegetables;$8,049;8/12/2012;United States
991;Banana;Fruit;$2,836;8/13/2012;Germany
992;Carrots;Vegetables;$1,743;8/19/2012;United States
993;Apple;Fruit;$3,844;8/23/2012;France
994;Apple;Fruit;$7,490;8/24/2012;France
995;Broccoli;Vegetables;$4,483;8/25/2012;Germany
996;Apple;Fruit;$7,333;8/27/2012;Canada
997;Carrots;Vegetables;$7,654;8/28/2012;United States
998;Apple;Fruit;$3,944;8/29/2012;United Kingdom
999;Beans;Vegetables;$5,761;8/29/2012;Germany
1000;Banana;Fruit;$6,864;9/1/2012;New Zealand
1001;Banana;Fruit;$4,016;9/1/2012;Germany
1002;Banana;Fruit;$1,841;9/2/2012;United States
1003;Banana;Fruit;$424;9/5/2012;Australia
1004;Banana;Fruit;$8,765;9/7/2012;United Kingdom
1005;Banana;Fruit;$5,583;9/8/2012;United States
1006;Broccoli;Vegetables;$4,390;9/9/2012;New Zealand
1007;Broccoli;Vegetables;$352;9/9/2012;Canada
1008;Apple;Fruit;$8,489;9/11/2012;United States
1009;Banana;Fruit;$7,090;9/11/2012;France
1010;Banana;Fruit;$7,880;9/15/2012;United States
1011;Orange;Fruit;$3,861;9/18/2012;United States
1012;Broccoli;Vegetables;$7,927;9/19/2012;Germany
1013;Banana;Fruit;$6,162;9/20/2012;United States
1014;Mango;Fruit;$5,523;9/25/2012;Australia
1015;Broccoli;Vegetables;$5,936;9/25/2012;United Kingdom
1016;Carrots;Vegetables;$7,251;9/26/2012;Germany
1017;Orange;Fruit;$6,187;9/27/2012;Australia
1018;Banana;Fruit;$3,210;9/29/2012;Germany
1019;Carrots;Vegetables;$682;9/29/2012;Germany
1020;Banana;Fruit;$793;10/3/2012;Australia
1021;Carrots;Vegetables;$5,346;10/4/2012;Germany
1022;Banana;Fruit;$7,103;10/7/2012;New Zealand
1023;Carrots;Vegetables;$4,603;10/10/2012;United States
1024;Apple;Fruit;$8,160;10/16/2012;France
1025;Apple;Fruit;$7,171;10/23/2012;United Kingdom
1026;Banana;Fruit;$3,552;10/23/2012;New Zealand
1027;Banana;Fruit;$7,273;10/25/2012;Australia
1028;Banana;Fruit;$2,402;10/26/2012;Germany
1029;Banana;Fruit;$1,197;10/26/2012;Australia
1030;Beans;Vegetables;$5,015;10/26/2012;Australia
1031;Orange;Fruit;$5,818;11/2/2012;United States
1032;Banana;Fruit;$4,399;11/3/2012;United Kingdom
1033;Carrots;Vegetables;$3,011;11/3/2012;United States
1034;Apple;Fruit;$4,715;11/9/2012;United Kingdom
1035;Apple;Fruit;$5,321;11/12/2012;France
1036;Banana;Fruit;$8,894;11/15/2012;United States
1037;Carrots;Vegetables;$4,846;11/25/2012;United Kingdom
1038;Broccoli;Vegetables;$284;11/25/2012;Germany
1039;Orange;Fruit;$8,283;11/26/2012;United Kingdom
1040;Orange;Fruit;$9,990;11/28/2012;Canada
1041;Banana;Fruit;$9,014;11/28/2012;Australia
1042;Apple;Fruit;$1,942;11/29/2012;France
1043;Banana;Fruit;$7,223;11/30/2012;United States
1044;Carrots;Vegetables;$4,673;12/2/2012;United States
1045;Carrots;Vegetables;$9,104;12/4/2012;France
1046;Apple;Fruit;$6,078;12/5/2012;United States
1047;Beans;Vegetables;$3,278;12/6/2012;Germany
1048;Banana;Fruit;$136;12/12/2012;Canada
1049;Banana;Fruit;$8,377;12/12/2012;Australia
1050;Banana;Fruit;$2,382;12/12/2012;United States
1051;Banana;Fruit;$8,702;12/15/2012;Germany
1052;Banana;Fruit;$5,021;12/16/2012;United States
1053;Apple;Fruit;$1,760;12/16/2012;Australia
1054;Banana;Fruit;$4,766;12/18/2012;Germany
1055;Beans;Vegetables;$1,541;12/19/2012;United Kingdom
1056;Orange;Fruit;$2,782;12/20/2012;United Kingdom
1057;Apple;Fruit;$2,455;12/20/2012;Canada
1058;Apple;Fruit;$4,512;12/22/2012;New Zealand
1059;Apple;Fruit;$8,752;12/22/2012;Germany
1060;Carrots;Vegetables;$9,127;12/25/2012;United States
1061;Apple;Fruit;$1,777;12/28/2012;France
1062;Beans;Vegetables;$680;12/28/2012;France
1063;Orange;Fruit;$958;12/29/2012;United States
1064;Carrots;Vegetables;$2,613;12/29/2012;Australia
1065;Carrots;Vegetables;$339;12/30/2012;Australia
